---
http_interactions:
- request:
    method: get
    uri: https://api.pexels.com/v1/search?query=denver,co%20city
    body:
      encoding: US-ASCII
      string: ''
    headers:
      Authorization:
      - 563492ad6f917000010000016eab51ed39a448d688d0df43134b144e
      User-Agent:
      - Faraday v1.3.0
      Accept-Encoding:
      - gzip;q=1.0,deflate;q=0.6,identity;q=0.3
      Accept:
      - "*/*"
  response:
    status:
      code: 200
      message: OK
    headers:
      Date:
      - Sun, 17 Jan 2021 21:03:10 GMT
      Content-Type:
      - application/json; charset=utf-8
      Content-Length:
      - '2139'
      Connection:
      - keep-alive
      Set-Cookie:
      - __cf_bm=e7300b6e9cdeba93b3bae902d1892e66137b3e39-1610917390-1800-AR9m6dF+90Y50MxYMlCEuNCUPTuh5cD6oqf5bqYLN1gOvo6D0RLitmL9M3keQy4BOApvGj1TBV0rOvWCF1tkWY0=;
        path=/; expires=Sun, 17-Jan-21 21:33:10 GMT; domain=.pexels.com; HttpOnly;
        Secure; SameSite=None
      - __cfduid=db70f84236d07ae1ac3eddddd2575dcaa1610917390; expires=Tue, 16-Feb-21
        21:03:10 GMT; path=/; domain=.pexels.com; HttpOnly; SameSite=Lax; Secure
      - __cfduid=dbac753a4ef417ec22db43a9b1c8887861610917390; expires=Tue, 16-Feb-21
        21:03:10 GMT; path=/; domain=.pexels.com; HttpOnly; SameSite=Lax; Secure
      Cache-Control:
      - max-age=0, private, must-revalidate
      Cf-Cache-Status:
      - DYNAMIC
      Cf-Request-Id:
      - 07b3c1bf100000129fd9033000000001
      Expect-Ct:
      - max-age=604800, report-uri="https://report-uri.cloudflare.com/cdn-cgi/beacon/expect-ct"
      Vary:
      - Origin
      X-Frame-Options:
      - ALLOWALL
      X-Ratelimit-Limit:
      - '20000'
      X-Ratelimit-Remaining:
      - '19992'
      X-Ratelimit-Reset:
      - '1613435187'
      X-Request-Id:
      - e959cf36-e5c7-438e-b31d-fda49aab9fbd
      X-Runtime:
      - '0.256449'
      X-Server:
      - master
      Server:
      - cloudflare
      Cf-Ray:
      - 613305781bc1129f-MIA
    body:
      encoding: ASCII-8BIT
      string: '{"page":1,"per_page":15,"photos":[{"id":3052361,"width":3843,"height":5790,"url":"https://www.pexels.com/photo/skyline-photography-of-buildings-3052361/","photographer":"Sanaan
        Mazhar","photographer_url":"https://www.pexels.com/@sanaan","photographer_id":1193942,"avg_color":"#141F21","src":{"original":"https://images.pexels.com/photos/3052361/pexels-photo-3052361.jpeg","large2x":"https://images.pexels.com/photos/3052361/pexels-photo-3052361.jpeg?auto=compress\u0026cs=tinysrgb\u0026dpr=2\u0026h=650\u0026w=940","large":"https://images.pexels.com/photos/3052361/pexels-photo-3052361.jpeg?auto=compress\u0026cs=tinysrgb\u0026h=650\u0026w=940","medium":"https://images.pexels.com/photos/3052361/pexels-photo-3052361.jpeg?auto=compress\u0026cs=tinysrgb\u0026h=350","small":"https://images.pexels.com/photos/3052361/pexels-photo-3052361.jpeg?auto=compress\u0026cs=tinysrgb\u0026h=130","portrait":"https://images.pexels.com/photos/3052361/pexels-photo-3052361.jpeg?auto=compress\u0026cs=tinysrgb\u0026fit=crop\u0026h=1200\u0026w=800","landscape":"https://images.pexels.com/photos/3052361/pexels-photo-3052361.jpeg?auto=compress\u0026cs=tinysrgb\u0026fit=crop\u0026h=627\u0026w=1200","tiny":"https://images.pexels.com/photos/3052361/pexels-photo-3052361.jpeg?auto=compress\u0026cs=tinysrgb\u0026dpr=1\u0026fit=crop\u0026h=200\u0026w=280"},"liked":false},{"id":3744162,"width":5304,"height":7952,"url":"https://www.pexels.com/photo/tall-palm-trees-under-purple-sky-3744162/","photographer":"Brady
        Knoll","photographer_url":"https://www.pexels.com/@trvlust","photographer_id":1428578,"avg_color":"#4F4059","src":{"original":"https://images.pexels.com/photos/3744162/pexels-photo-3744162.jpeg","large2x":"https://images.pexels.com/photos/3744162/pexels-photo-3744162.jpeg?auto=compress\u0026cs=tinysrgb\u0026dpr=2\u0026h=650\u0026w=940","large":"https://images.pexels.com/photos/3744162/pexels-photo-3744162.jpeg?auto=compress\u0026cs=tinysrgb\u0026h=650\u0026w=940","medium":"https://images.pexels.com/photos/3744162/pexels-photo-3744162.jpeg?auto=compress\u0026cs=tinysrgb\u0026h=350","small":"https://images.pexels.com/photos/3744162/pexels-photo-3744162.jpeg?auto=compress\u0026cs=tinysrgb\u0026h=130","portrait":"https://images.pexels.com/photos/3744162/pexels-photo-3744162.jpeg?auto=compress\u0026cs=tinysrgb\u0026fit=crop\u0026h=1200\u0026w=800","landscape":"https://images.pexels.com/photos/3744162/pexels-photo-3744162.jpeg?auto=compress\u0026cs=tinysrgb\u0026fit=crop\u0026h=627\u0026w=1200","tiny":"https://images.pexels.com/photos/3744162/pexels-photo-3744162.jpeg?auto=compress\u0026cs=tinysrgb\u0026dpr=1\u0026fit=crop\u0026h=200\u0026w=280"},"liked":false},{"id":2347011,"width":2000,"height":3000,"url":"https://www.pexels.com/photo/mountain-during-golden-hour-2347011/","photographer":"eberhard
        grossgasteiger","photographer_url":"https://www.pexels.com/@eberhardgross","photographer_id":121938,"avg_color":"#2E3736","src":{"original":"https://images.pexels.com/photos/2347011/pexels-photo-2347011.jpeg","large2x":"https://images.pexels.com/photos/2347011/pexels-photo-2347011.jpeg?auto=compress\u0026cs=tinysrgb\u0026dpr=2\u0026h=650\u0026w=940","large":"https://images.pexels.com/photos/2347011/pexels-photo-2347011.jpeg?auto=compress\u0026cs=tinysrgb\u0026h=650\u0026w=940","medium":"https://images.pexels.com/photos/2347011/pexels-photo-2347011.jpeg?auto=compress\u0026cs=tinysrgb\u0026h=350","small":"https://images.pexels.com/photos/2347011/pexels-photo-2347011.jpeg?auto=compress\u0026cs=tinysrgb\u0026h=130","portrait":"https://images.pexels.com/photos/2347011/pexels-photo-2347011.jpeg?auto=compress\u0026cs=tinysrgb\u0026fit=crop\u0026h=1200\u0026w=800","landscape":"https://images.pexels.com/photos/2347011/pexels-photo-2347011.jpeg?auto=compress\u0026cs=tinysrgb\u0026fit=crop\u0026h=627\u0026w=1200","tiny":"https://images.pexels.com/photos/2347011/pexels-photo-2347011.jpeg?auto=compress\u0026cs=tinysrgb\u0026dpr=1\u0026fit=crop\u0026h=200\u0026w=280"},"liked":false},{"id":2246476,"width":5464,"height":3643,"url":"https://www.pexels.com/photo/bird-s-eye-view-of-city-2246476/","photographer":"Maxime
        Francis","photographer_url":"https://www.pexels.com/@maxfrancis","photographer_id":1177963,"avg_color":"#36535C","src":{"original":"https://images.pexels.com/photos/2246476/pexels-photo-2246476.jpeg","large2x":"https://images.pexels.com/photos/2246476/pexels-photo-2246476.jpeg?auto=compress\u0026cs=tinysrgb\u0026dpr=2\u0026h=650\u0026w=940","large":"https://images.pexels.com/photos/2246476/pexels-photo-2246476.jpeg?auto=compress\u0026cs=tinysrgb\u0026h=650\u0026w=940","medium":"https://images.pexels.com/photos/2246476/pexels-photo-2246476.jpeg?auto=compress\u0026cs=tinysrgb\u0026h=350","small":"https://images.pexels.com/photos/2246476/pexels-photo-2246476.jpeg?auto=compress\u0026cs=tinysrgb\u0026h=130","portrait":"https://images.pexels.com/photos/2246476/pexels-photo-2246476.jpeg?auto=compress\u0026cs=tinysrgb\u0026fit=crop\u0026h=1200\u0026w=800","landscape":"https://images.pexels.com/photos/2246476/pexels-photo-2246476.jpeg?auto=compress\u0026cs=tinysrgb\u0026fit=crop\u0026h=627\u0026w=1200","tiny":"https://images.pexels.com/photos/2246476/pexels-photo-2246476.jpeg?auto=compress\u0026cs=tinysrgb\u0026dpr=1\u0026fit=crop\u0026h=200\u0026w=280"},"liked":false},{"id":313782,"width":5103,"height":3320,"url":"https://www.pexels.com/photo/high-angle-view-of-cityscape-against-cloudy-sky-313782/","photographer":"Quintin
        Gellar","photographer_url":"https://www.pexels.com/@quintingellar","photographer_id":99238,"avg_color":"#775551","src":{"original":"https://images.pexels.com/photos/313782/pexels-photo-313782.jpeg","large2x":"https://images.pexels.com/photos/313782/pexels-photo-313782.jpeg?auto=compress\u0026cs=tinysrgb\u0026dpr=2\u0026h=650\u0026w=940","large":"https://images.pexels.com/photos/313782/pexels-photo-313782.jpeg?auto=compress\u0026cs=tinysrgb\u0026h=650\u0026w=940","medium":"https://images.pexels.com/photos/313782/pexels-photo-313782.jpeg?auto=compress\u0026cs=tinysrgb\u0026h=350","small":"https://images.pexels.com/photos/313782/pexels-photo-313782.jpeg?auto=compress\u0026cs=tinysrgb\u0026h=130","portrait":"https://images.pexels.com/photos/313782/pexels-photo-313782.jpeg?auto=compress\u0026cs=tinysrgb\u0026fit=crop\u0026h=1200\u0026w=800","landscape":"https://images.pexels.com/photos/313782/pexels-photo-313782.jpeg?auto=compress\u0026cs=tinysrgb\u0026fit=crop\u0026h=627\u0026w=1200","tiny":"https://images.pexels.com/photos/313782/pexels-photo-313782.jpeg?auto=compress\u0026cs=tinysrgb\u0026dpr=1\u0026fit=crop\u0026h=200\u0026w=280"},"liked":false},{"id":3617460,"width":4000,"height":5000,"url":"https://www.pexels.com/photo/cars-on-road-between-high-rise-buildings-3617460/","photographer":"Benjamin
        Suter","photographer_url":"https://www.pexels.com/@benjaminjsuter","photographer_id":1166597,"avg_color":"#444946","src":{"original":"https://images.pexels.com/photos/3617460/pexels-photo-3617460.jpeg","large2x":"https://images.pexels.com/photos/3617460/pexels-photo-3617460.jpeg?auto=compress\u0026cs=tinysrgb\u0026dpr=2\u0026h=650\u0026w=940","large":"https://images.pexels.com/photos/3617460/pexels-photo-3617460.jpeg?auto=compress\u0026cs=tinysrgb\u0026h=650\u0026w=940","medium":"https://images.pexels.com/photos/3617460/pexels-photo-3617460.jpeg?auto=compress\u0026cs=tinysrgb\u0026h=350","small":"https://images.pexels.com/photos/3617460/pexels-photo-3617460.jpeg?auto=compress\u0026cs=tinysrgb\u0026h=130","portrait":"https://images.pexels.com/photos/3617460/pexels-photo-3617460.jpeg?auto=compress\u0026cs=tinysrgb\u0026fit=crop\u0026h=1200\u0026w=800","landscape":"https://images.pexels.com/photos/3617460/pexels-photo-3617460.jpeg?auto=compress\u0026cs=tinysrgb\u0026fit=crop\u0026h=627\u0026w=1200","tiny":"https://images.pexels.com/photos/3617460/pexels-photo-3617460.jpeg?auto=compress\u0026cs=tinysrgb\u0026dpr=1\u0026fit=crop\u0026h=200\u0026w=280"},"liked":false},{"id":4151043,"width":3456,"height":4608,"url":"https://www.pexels.com/photo/signboard-with-time-is-precious-title-on-black-background-4151043/","photographer":"Eunice
        Lui","photographer_url":"https://www.pexels.com/@exnl","photographer_id":322626,"avg_color":"#123","src":{"original":"https://images.pexels.com/photos/4151043/pexels-photo-4151043.jpeg","large2x":"https://images.pexels.com/photos/4151043/pexels-photo-4151043.jpeg?auto=compress\u0026cs=tinysrgb\u0026dpr=2\u0026h=650\u0026w=940","large":"https://images.pexels.com/photos/4151043/pexels-photo-4151043.jpeg?auto=compress\u0026cs=tinysrgb\u0026h=650\u0026w=940","medium":"https://images.pexels.com/photos/4151043/pexels-photo-4151043.jpeg?auto=compress\u0026cs=tinysrgb\u0026h=350","small":"https://images.pexels.com/photos/4151043/pexels-photo-4151043.jpeg?auto=compress\u0026cs=tinysrgb\u0026h=130","portrait":"https://images.pexels.com/photos/4151043/pexels-photo-4151043.jpeg?auto=compress\u0026cs=tinysrgb\u0026fit=crop\u0026h=1200\u0026w=800","landscape":"https://images.pexels.com/photos/4151043/pexels-photo-4151043.jpeg?auto=compress\u0026cs=tinysrgb\u0026fit=crop\u0026h=627\u0026w=1200","tiny":"https://images.pexels.com/photos/4151043/pexels-photo-4151043.jpeg?auto=compress\u0026cs=tinysrgb\u0026dpr=1\u0026fit=crop\u0026h=200\u0026w=280"},"liked":false},{"id":3751006,"width":5399,"height":8701,"url":"https://www.pexels.com/photo/the-denver-post-office-and-federal-court-house-3751006/","photographer":"Colin
        Lloyd","photographer_url":"https://www.pexels.com/@colin-lloyd-2120291","photographer_id":2120291,"avg_color":"#AAABA7","src":{"original":"https://images.pexels.com/photos/3751006/pexels-photo-3751006.jpeg","large2x":"https://images.pexels.com/photos/3751006/pexels-photo-3751006.jpeg?auto=compress\u0026cs=tinysrgb\u0026dpr=2\u0026h=650\u0026w=940","large":"https://images.pexels.com/photos/3751006/pexels-photo-3751006.jpeg?auto=compress\u0026cs=tinysrgb\u0026h=650\u0026w=940","medium":"https://images.pexels.com/photos/3751006/pexels-photo-3751006.jpeg?auto=compress\u0026cs=tinysrgb\u0026h=350","small":"https://images.pexels.com/photos/3751006/pexels-photo-3751006.jpeg?auto=compress\u0026cs=tinysrgb\u0026h=130","portrait":"https://images.pexels.com/photos/3751006/pexels-photo-3751006.jpeg?auto=compress\u0026cs=tinysrgb\u0026fit=crop\u0026h=1200\u0026w=800","landscape":"https://images.pexels.com/photos/3751006/pexels-photo-3751006.jpeg?auto=compress\u0026cs=tinysrgb\u0026fit=crop\u0026h=627\u0026w=1200","tiny":"https://images.pexels.com/photos/3751006/pexels-photo-3751006.jpeg?auto=compress\u0026cs=tinysrgb\u0026dpr=1\u0026fit=crop\u0026h=200\u0026w=280"},"liked":false},{"id":3751009,"width":3322,"height":4983,"url":"https://www.pexels.com/photo/brown-concrete-building-during-night-time-3751009/","photographer":"Colin
        Lloyd","photographer_url":"https://www.pexels.com/@colin-lloyd-2120291","photographer_id":2120291,"avg_color":"#606966","src":{"original":"https://images.pexels.com/photos/3751009/pexels-photo-3751009.jpeg","large2x":"https://images.pexels.com/photos/3751009/pexels-photo-3751009.jpeg?auto=compress\u0026cs=tinysrgb\u0026dpr=2\u0026h=650\u0026w=940","large":"https://images.pexels.com/photos/3751009/pexels-photo-3751009.jpeg?auto=compress\u0026cs=tinysrgb\u0026h=650\u0026w=940","medium":"https://images.pexels.com/photos/3751009/pexels-photo-3751009.jpeg?auto=compress\u0026cs=tinysrgb\u0026h=350","small":"https://images.pexels.com/photos/3751009/pexels-photo-3751009.jpeg?auto=compress\u0026cs=tinysrgb\u0026h=130","portrait":"https://images.pexels.com/photos/3751009/pexels-photo-3751009.jpeg?auto=compress\u0026cs=tinysrgb\u0026fit=crop\u0026h=1200\u0026w=800","landscape":"https://images.pexels.com/photos/3751009/pexels-photo-3751009.jpeg?auto=compress\u0026cs=tinysrgb\u0026fit=crop\u0026h=627\u0026w=1200","tiny":"https://images.pexels.com/photos/3751009/pexels-photo-3751009.jpeg?auto=compress\u0026cs=tinysrgb\u0026dpr=1\u0026fit=crop\u0026h=200\u0026w=280"},"liked":false},{"id":3751010,"width":3712,"height":5568,"url":"https://www.pexels.com/photo/red-and-white-concrete-building-during-night-time-3751010/","photographer":"Colin
        Lloyd","photographer_url":"https://www.pexels.com/@colin-lloyd-2120291","photographer_id":2120291,"avg_color":"#5A4741","src":{"original":"https://images.pexels.com/photos/3751010/pexels-photo-3751010.jpeg","large2x":"https://images.pexels.com/photos/3751010/pexels-photo-3751010.jpeg?auto=compress\u0026cs=tinysrgb\u0026dpr=2\u0026h=650\u0026w=940","large":"https://images.pexels.com/photos/3751010/pexels-photo-3751010.jpeg?auto=compress\u0026cs=tinysrgb\u0026h=650\u0026w=940","medium":"https://images.pexels.com/photos/3751010/pexels-photo-3751010.jpeg?auto=compress\u0026cs=tinysrgb\u0026h=350","small":"https://images.pexels.com/photos/3751010/pexels-photo-3751010.jpeg?auto=compress\u0026cs=tinysrgb\u0026h=130","portrait":"https://images.pexels.com/photos/3751010/pexels-photo-3751010.jpeg?auto=compress\u0026cs=tinysrgb\u0026fit=crop\u0026h=1200\u0026w=800","landscape":"https://images.pexels.com/photos/3751010/pexels-photo-3751010.jpeg?auto=compress\u0026cs=tinysrgb\u0026fit=crop\u0026h=627\u0026w=1200","tiny":"https://images.pexels.com/photos/3751010/pexels-photo-3751010.jpeg?auto=compress\u0026cs=tinysrgb\u0026dpr=1\u0026fit=crop\u0026h=200\u0026w=280"},"liked":false},{"id":6089063,"width":2662,"height":3328,"url":"https://www.pexels.com/photo/white-round-outdoor-fountain-located-in-modern-city-6089063/","photographer":"Pok
        Rie","photographer_url":"https://www.pexels.com/@pok-rie-33563","photographer_id":33563,"avg_color":"#676E50","src":{"original":"https://images.pexels.com/photos/6089063/pexels-photo-6089063.jpeg","large2x":"https://images.pexels.com/photos/6089063/pexels-photo-6089063.jpeg?auto=compress\u0026cs=tinysrgb\u0026dpr=2\u0026h=650\u0026w=940","large":"https://images.pexels.com/photos/6089063/pexels-photo-6089063.jpeg?auto=compress\u0026cs=tinysrgb\u0026h=650\u0026w=940","medium":"https://images.pexels.com/photos/6089063/pexels-photo-6089063.jpeg?auto=compress\u0026cs=tinysrgb\u0026h=350","small":"https://images.pexels.com/photos/6089063/pexels-photo-6089063.jpeg?auto=compress\u0026cs=tinysrgb\u0026h=130","portrait":"https://images.pexels.com/photos/6089063/pexels-photo-6089063.jpeg?auto=compress\u0026cs=tinysrgb\u0026fit=crop\u0026h=1200\u0026w=800","landscape":"https://images.pexels.com/photos/6089063/pexels-photo-6089063.jpeg?auto=compress\u0026cs=tinysrgb\u0026fit=crop\u0026h=627\u0026w=1200","tiny":"https://images.pexels.com/photos/6089063/pexels-photo-6089063.jpeg?auto=compress\u0026cs=tinysrgb\u0026dpr=1\u0026fit=crop\u0026h=200\u0026w=280"},"liked":false},{"id":3056059,"width":4912,"height":7360,"url":"https://www.pexels.com/photo/person-standing-infront-of-a-display-window-3056059/","photographer":"Collis","photographer_url":"https://www.pexels.com/@photosbycollis","photographer_id":1571791,"avg_color":"#898168","src":{"original":"https://images.pexels.com/photos/3056059/pexels-photo-3056059.jpeg","large2x":"https://images.pexels.com/photos/3056059/pexels-photo-3056059.jpeg?auto=compress\u0026cs=tinysrgb\u0026dpr=2\u0026h=650\u0026w=940","large":"https://images.pexels.com/photos/3056059/pexels-photo-3056059.jpeg?auto=compress\u0026cs=tinysrgb\u0026h=650\u0026w=940","medium":"https://images.pexels.com/photos/3056059/pexels-photo-3056059.jpeg?auto=compress\u0026cs=tinysrgb\u0026h=350","small":"https://images.pexels.com/photos/3056059/pexels-photo-3056059.jpeg?auto=compress\u0026cs=tinysrgb\u0026h=130","portrait":"https://images.pexels.com/photos/3056059/pexels-photo-3056059.jpeg?auto=compress\u0026cs=tinysrgb\u0026fit=crop\u0026h=1200\u0026w=800","landscape":"https://images.pexels.com/photos/3056059/pexels-photo-3056059.jpeg?auto=compress\u0026cs=tinysrgb\u0026fit=crop\u0026h=627\u0026w=1200","tiny":"https://images.pexels.com/photos/3056059/pexels-photo-3056059.jpeg?auto=compress\u0026cs=tinysrgb\u0026dpr=1\u0026fit=crop\u0026h=200\u0026w=280"},"liked":false},{"id":3751008,"width":3712,"height":5568,"url":"https://www.pexels.com/photo/people-walking-on-street-3751008/","photographer":"Colin
        Lloyd","photographer_url":"https://www.pexels.com/@colin-lloyd-2120291","photographer_id":2120291,"avg_color":"#595553","src":{"original":"https://images.pexels.com/photos/3751008/pexels-photo-3751008.jpeg","large2x":"https://images.pexels.com/photos/3751008/pexels-photo-3751008.jpeg?auto=compress\u0026cs=tinysrgb\u0026dpr=2\u0026h=650\u0026w=940","large":"https://images.pexels.com/photos/3751008/pexels-photo-3751008.jpeg?auto=compress\u0026cs=tinysrgb\u0026h=650\u0026w=940","medium":"https://images.pexels.com/photos/3751008/pexels-photo-3751008.jpeg?auto=compress\u0026cs=tinysrgb\u0026h=350","small":"https://images.pexels.com/photos/3751008/pexels-photo-3751008.jpeg?auto=compress\u0026cs=tinysrgb\u0026h=130","portrait":"https://images.pexels.com/photos/3751008/pexels-photo-3751008.jpeg?auto=compress\u0026cs=tinysrgb\u0026fit=crop\u0026h=1200\u0026w=800","landscape":"https://images.pexels.com/photos/3751008/pexels-photo-3751008.jpeg?auto=compress\u0026cs=tinysrgb\u0026fit=crop\u0026h=627\u0026w=1200","tiny":"https://images.pexels.com/photos/3751008/pexels-photo-3751008.jpeg?auto=compress\u0026cs=tinysrgb\u0026dpr=1\u0026fit=crop\u0026h=200\u0026w=280"},"liked":false},{"id":2269617,"width":4000,"height":6000,"url":"https://www.pexels.com/photo/concrete-buildings-2269617/","photographer":"Spencer
        Selover","photographer_url":"https://www.pexels.com/@spencer-selover-142259","photographer_id":142259,"avg_color":"#564F4B","src":{"original":"https://images.pexels.com/photos/2269617/pexels-photo-2269617.jpeg","large2x":"https://images.pexels.com/photos/2269617/pexels-photo-2269617.jpeg?auto=compress\u0026cs=tinysrgb\u0026dpr=2\u0026h=650\u0026w=940","large":"https://images.pexels.com/photos/2269617/pexels-photo-2269617.jpeg?auto=compress\u0026cs=tinysrgb\u0026h=650\u0026w=940","medium":"https://images.pexels.com/photos/2269617/pexels-photo-2269617.jpeg?auto=compress\u0026cs=tinysrgb\u0026h=350","small":"https://images.pexels.com/photos/2269617/pexels-photo-2269617.jpeg?auto=compress\u0026cs=tinysrgb\u0026h=130","portrait":"https://images.pexels.com/photos/2269617/pexels-photo-2269617.jpeg?auto=compress\u0026cs=tinysrgb\u0026fit=crop\u0026h=1200\u0026w=800","landscape":"https://images.pexels.com/photos/2269617/pexels-photo-2269617.jpeg?auto=compress\u0026cs=tinysrgb\u0026fit=crop\u0026h=627\u0026w=1200","tiny":"https://images.pexels.com/photos/2269617/pexels-photo-2269617.jpeg?auto=compress\u0026cs=tinysrgb\u0026dpr=1\u0026fit=crop\u0026h=200\u0026w=280"},"liked":false},{"id":3639003,"width":3124,"height":3905,"url":"https://www.pexels.com/photo/white-window-blinds-3639003/","photographer":"Aidan
        Nguyen","photographer_url":"https://www.pexels.com/@aidan-nguyen-798328","photographer_id":798328,"avg_color":"#A9ADB3","src":{"original":"https://images.pexels.com/photos/3639003/pexels-photo-3639003.jpeg","large2x":"https://images.pexels.com/photos/3639003/pexels-photo-3639003.jpeg?auto=compress\u0026cs=tinysrgb\u0026dpr=2\u0026h=650\u0026w=940","large":"https://images.pexels.com/photos/3639003/pexels-photo-3639003.jpeg?auto=compress\u0026cs=tinysrgb\u0026h=650\u0026w=940","medium":"https://images.pexels.com/photos/3639003/pexels-photo-3639003.jpeg?auto=compress\u0026cs=tinysrgb\u0026h=350","small":"https://images.pexels.com/photos/3639003/pexels-photo-3639003.jpeg?auto=compress\u0026cs=tinysrgb\u0026h=130","portrait":"https://images.pexels.com/photos/3639003/pexels-photo-3639003.jpeg?auto=compress\u0026cs=tinysrgb\u0026fit=crop\u0026h=1200\u0026w=800","landscape":"https://images.pexels.com/photos/3639003/pexels-photo-3639003.jpeg?auto=compress\u0026cs=tinysrgb\u0026fit=crop\u0026h=627\u0026w=1200","tiny":"https://images.pexels.com/photos/3639003/pexels-photo-3639003.jpeg?auto=compress\u0026cs=tinysrgb\u0026dpr=1\u0026fit=crop\u0026h=200\u0026w=280"},"liked":false}],"total_results":8000,"next_page":"https://api.pexels.com/v1/search/?page=2\u0026per_page=15\u0026query=denver%2Cco+city"}'
  recorded_at: Sun, 17 Jan 2021 21:03:10 GMT
recorded_with: VCR 6.0.0
